DCL Line Number,Name,BTO,CLO,,
1,MCF-10 PSON,7599,1939,1.0.1.1,L_0000000001
2,MDA-MB-231 PSON,7634,815,2.0.1.1,L_0000000002
1,MCF10A,7599,1939,1.0.2.1,L_0000000003
2,MDA-MB-231,7634,815,2.0.2.1,L_0000000004
3,A_375,1582,2806,3.0.0.1,L_0000000007
4,Caco_2,2172,195,4.0.0.1,L_0000000008
5,CAOV_3,2195,814,5.0.0.1,L_0000000009
6,Capan_1,2197,2744,6.0.0.1,L_0000000010
7,DU4475,2842,,7.0.0.1,L_0000000011
8,DU_145,1332,,8.0.0.1,L_0000000012
9,HCC1937,3645,3323,9.0.0.1,L_0000000013
10,HCT_116,3665,1109,10.0.0.1,L_0000000014
11,HTERT_HME1,4291,,11.0.0.1,L_0000000015
12,HTERT_HPNE,4290,,12.0.0.1,L_0000000016
13,line_22Rv1,1199,2999,13.0.0.1,L_0000000017
14,LNCAP_CLONE_FGC,7365,1321,14.0.0.1,L_0000000018
15,LoVo,7377,666,15.0.0.1,L_0000000019
16,MCF_7,7601,93,16.0.0.1,L_0000000020
17,MDA_MB_468,7641,1570,17.0.0.1,L_0000000021
18,MeWo,7687,3301,18.0.0.1,L_0000000022
19,NCI_BL2087,7970,3764,19.0.0.1,L_0000000023
20,NCI_BL2126,3648,,20.0.0.1,L_0000000024
21,NCI_H2087,8048,3241,21.0.0.1,L_0000000025
22,NCI_H2126,8056,3240,22.0.0.1,L_0000000026
23,NCI_PBCF_HTB_38,4283,182,23.0.0.1,L_0000000027
24,NIH_OVCAR_3,8279,812,24.0.0.1,L_0000000028
25,NL20,8179,,25.0.0.1,L_0000000029
26,PANC_1,8381,304,26.0.0.1,L_0000000030
27,PC_3,51535,1061,27.0.0.1,L_0000000031
28,RWPE_1,8905,3709,28.0.0.1,L_0000000032
29,SK_MEL_2,9041,3476,29.0.0.1,L_0000000033
30,SK_OV_3,9063,948,30.0.0.1,L_0000000034
31,SW480,9218,38,31.0.0.1,L_0000000035
32,SW620,9221,675,32.0.0.1,L_0000000036
33,T98G,50636,1583,33.0.0.1,L_0000000037
34,T_47D,9251,1248,34.0.0.1,L_0000000038
35,U_87,9464,2036,35.0.0.1,L_0000000039
36,VCAP,,3215,36.0.0.1,L_0000000040
37,WM_266_4,9615,1595,37.0.0.1,L_0000000041
38,ZR_75_1,9727,3136,38.0.0.1,L_0000000042
39,HUVEC,,,39.0.0.1,L_0000000043
40,S. cerevisiae,,,40.0.0.1,L_0000000044
41,E. coli,,,41.0.0.1,L_0000000045
42,S. aureus,,,42.0.0.1,L_0000000046
43,Lymphoma Arf Null,,,43.0.0.1,L_0000000047
44,Lymphoma p53 Null,,,44.0.0.1,L_0000000048
45,DCIS_ACP2011_8,,,45.0.0.1,L_0000000049
46,DCIS_ACP2011_13,,,46.0.0.1,L_0000000050
47,DCIS_ACP2011_14,,,47.0.0.1,L_0000000051
48,DCIS_ACP2011_15,,,48.0.0.1,L_0000000052
49,DCIS_ACP2011_17,,,49.0.0.1,L_0000000053
50,DCIS_ACP2011_18.1,,,50.0.0.1,L_0000000054
51,DCIS_ACP2011_18.2,,,51.0.0.1,L_0000000055
52,DCIS_ACP2011_19,,,52.0.0.1,L_0000000056
53,DCIS_ACP2011_21,,,53.0.0.1,L_0000000057
54,DCIS_ACP2011_22,,,54.0.0.1,L_0000000058
55,DCIS_ACP2011_23,,,55.0.0.1,L_0000000059
56,DCIS_ACP2011_28,,,56.0.0.1,L_0000000060
57,DCIS_ACP2011_39,,,57.0.0.1,L_0000000061
58,DCIS_ACP2011_40,,,58.0.0.1,L_0000000062
59,DCIS_ACP2011_42,,,59.0.0.1,L_0000000063
60,DCIS_ACP2011_48,,,60.0.0.1,L_0000000064
61,DCIS_ACP2011_51,,,61.0.0.1,L_0000000065
62,GBM 1,,,62.0.0.1,L_0000000066
63,GBM 2,,,63.0.0.1,L_0000000067
64,GBM 3,,,64.0.0.1,L_0000000068
65,GBM 4,,,65.0.0.1,L_0000000069
66,GBM 5,,,66.0.0.1,L_0000000070
67,GBM 6,,,67.0.0.1,L_0000000071
68,GBM 7,,,68.0.0.1,L_0000000072
69,GBM 8,,,69.0.0.1,L_0000000073
70,GBM 9,,,70.0.0.1,L_0000000074
71,GBM 10,,,71.0.0.1,L_0000000075
72,GBM 11,,,72.0.0.1,L_0000000076
73,GBM 12,,,73.0.0.1,L_0000000077
74,GBM 13,,,74.0.0.1,L_0000000078
75,GBM 14,,,75.0.0.1,L_0000000079
76,GBM 15,,,76.0.0.1,L_0000000080
77,GBM 16,,,77.0.0.1,L_0000000081
78,GBM 17,,,78.0.0.1,L_0000000082
79,GBM 18,,,79.0.0.1,L_0000000083
80,GBM 19,,,80.0.0.1,L_0000000084
81,GBM 20,,,81.0.0.1,L_0000000085
82,GBM 21,,,82.0.0.1,L_0000000086
83,GBM 22,,,83.0.0.1,L_0000000087
84,GBM 23,,,84.0.0.1,L_0000000088
85,GBM 24,,,85.0.0.1,L_0000000089
86,GBM 25,,,86.0.0.1,L_0000000090
87,GBM 26,,,87.0.0.1,L_0000000091
88,GBM 27,,,88.0.0.1,L_0000000092
89,GBM 28,,,89.0.0.1,L_0000000093
90,GBM 29,,,90.0.0.1,L_0000000094
91,GBM 30,,,91.0.0.1,L_0000000095
92,GBM 31,,,92.0.0.1,L_0000000096
93,GBM 32,,,93.0.0.1,L_0000000097
94,GBM 33,,,94.0.0.1,L_0000000098
95,GBM 34,,,95.0.0.1,L_0000000099
96,GBM 35,,,96.0.0.1,L_0000000100
97,GBM 36,,,97.0.0.1,L_0000000101
98,GBM 37,,,98.0.0.1,L_0000000102
99,GBM 38,,,99.0.0.1,L_0000000103
100,GBM 39,,,100.0.0.1,L_0000000104
101,GBM 40,,,101.0.0.1,L_0000000105
102,GBM 41,,,102.0.0.1,L_0000000106
103,GBM 42,,,103.0.0.1,L_0000000107
104,GBM 43,,,104.0.0.1,L_0000000108
105,GBM 44,,,105.0.0.1,L_0000000109
106,GBM 45,,,106.0.0.1,L_0000000110
107,GBM 46,,,107.0.0.1,L_0000000111
108,GBM 47,,,108.0.0.1,L_0000000112
109,GBM 48,,,109.0.0.1,L_0000000113
110,GBM 49,,,110.0.0.1,L_0000000114
111,GBM 50,,,111.0.0.1,L_0000000115
112,GBM 51,,,112.0.0.1,L_0000000116
113,GBM 52,,,113.0.0.1,L_0000000117
114,GBM 53,,,114.0.0.1,L_0000000118
115,TCGA-02-0003,,,115.0.0.1,L_0000000119
116,TCGA-02-0006,,,116.0.0.1,L_0000000120
117,TCGA-02-0009,,,117.0.0.1,L_0000000121
118,TCGA-02-0027,,,118.0.0.1,L_0000000122
119,TCGA-02-0033,,,119.0.0.1,L_0000000123
120,TCGA-02-0034,,,120.0.0.1,L_0000000124
121,TCGA-02-0037,,,121.0.0.1,L_0000000125
122,TCGA-02-0046,,,122.0.0.1,L_0000000126
123,TCGA-02-0047,,,123.0.0.1,L_0000000127
124,TCGA-02-0048,,,124.0.0.1,L_0000000128
125,TCGA-02-0054,,,125.0.0.1,L_0000000129
126,TCGA-02-0059,,,126.0.0.1,L_0000000130
127,TCGA-02-0060,,,127.0.0.1,L_0000000131
128,TCGA-02-0064,,,128.0.0.1,L_0000000132
129,TCGA-02-0068,,,129.0.0.1,L_0000000133
130,TCGA-02-0069,,,130.0.0.1,L_0000000134
131,TCGA-02-0070,,,131.0.0.1,L_0000000135
132,TCGA-02-0075,,,132.0.0.1,L_0000000136
133,TCGA-02-0085,,,133.0.0.1,L_0000000137
134,TCGA-02-0086,,,134.0.0.1,L_0000000138
135,TCGA-02-0087,,,135.0.0.1,L_0000000139
136,TCGA-02-0102,,,136.0.0.1,L_0000000140
137,TCGA-02-0106,,,137.0.0.1,L_0000000141
138,TCGA-02-0116,,,138.0.0.1,L_0000000142
139,TCGA-06-0118,,,139.0.0.1,L_0000000143
140,TCGA-06-0119,,,140.0.0.1,L_0000000144
141,TCGA-06-0122,,,141.0.0.1,L_0000000145
142,TCGA-06-0125,,,142.0.0.1,L_0000000146
143,TCGA-06-0127,,,143.0.0.1,L_0000000147
144,TCGA-06-0128,,,144.0.0.1,L_0000000148
145,TCGA-06-0129,,,145.0.0.1,L_0000000149
146,TCGA-06-0130,,,146.0.0.1,L_0000000150
147,TCGA-06-0132,,,147.0.0.1,L_0000000151
148,TCGA-06-0133,,,148.0.0.1,L_0000000152
149,TCGA-06-0134,,,149.0.0.1,L_0000000153
150,TCGA-06-0135,,,150.0.0.1,L_0000000154
151,TCGA-06-0137,,,151.0.0.1,L_0000000155
152,TCGA-06-0138,,,152.0.0.1,L_0000000156
153,TCGA-06-0139,,,153.0.0.1,L_0000000157
154,TCGA-06-0143,,,154.0.0.1,L_0000000158
155,TCGA-06-0144,,,155.0.0.1,L_0000000159
156,TCGA-06-0145,,,156.0.0.1,L_0000000160
157,TCGA-06-0147,,,157.0.0.1,L_0000000161
158,TCGA-06-0148,,,158.0.0.1,L_0000000162
159,TCGA-06-0149,,,159.0.0.1,L_0000000163
160,TCGA-06-0154,,,160.0.0.1,L_0000000164
161,TCGA-06-0158,,,161.0.0.1,L_0000000165
162,TCGA-06-0160,,,162.0.0.1,L_0000000166
163,TCGA-06-0162,,,163.0.0.1,L_0000000167
164,TCGA-06-0166,,,164.0.0.1,L_0000000168
165,TCGA-06-0168,,,165.0.0.1,L_0000000169
166,TCGA-06-0173,,,166.0.0.1,L_0000000170
167,TCGA-06-0174,,,167.0.0.1,L_0000000171
168,TCGA-06-0175,,,168.0.0.1,L_0000000172
169,TCGA-06-0176,,,169.0.0.1,L_0000000173
170,TCGA-06-0177,,,170.0.0.1,L_0000000174
171,TCGA-06-0179,,,171.0.0.1,L_0000000175
172,TCGA-06-0182,,,172.0.0.1,L_0000000176
173,TCGA-06-0184,,,173.0.0.1,L_0000000177
174,TCGA-06-0185,,,174.0.0.1,L_0000000178
175,TCGA-06-0187,,,175.0.0.1,L_0000000179
176,TCGA-06-0188,,,176.0.0.1,L_0000000180
177,TCGA-06-0189,,,177.0.0.1,L_0000000181
178,TCGA-06-0190,,,178.0.0.1,L_0000000182
179,TCGA-06-0192,,,179.0.0.1,L_0000000183
180,TCGA-06-0213,,,180.0.0.1,L_0000000184
181,TCGA-06-0237,,,181.0.0.1,L_0000000185
182,TCGA-06-0238,,,182.0.0.1,L_0000000186
183,TCGA-06-0240,,,183.0.0.1,L_0000000187
184,TCGA-06-0241,,,184.0.0.1,L_0000000188
185,TCGA-06-0644,,,185.0.0.1,L_0000000189
186,TCGA-06-0645,,,186.0.0.1,L_0000000190
187,TCGA-06-0646,,,187.0.0.1,L_0000000191
188,TCGA-06-0648,,,188.0.0.1,L_0000000192
189,TCGA-06-0649,,,189.0.0.1,L_0000000193
190,TCGA-06-5408,,,190.0.0.1,L_0000000194
191,TCGA-06-5412,,,191.0.0.1,L_0000000195
192,TCGA-06-5413,,,192.0.0.1,L_0000000196
193,TCGA-08-0244,,,193.0.0.1,L_0000000197
194,TCGA-08-0246,,,194.0.0.1,L_0000000198
195,TCGA-08-0348,,,195.0.0.1,L_0000000199
196,TCGA-08-0349,,,196.0.0.1,L_0000000200
197,TCGA-08-0350,,,197.0.0.1,L_0000000201
198,TCGA-08-0352,,,198.0.0.1,L_0000000202
199,TCGA-08-0353,,,199.0.0.1,L_0000000203
200,TCGA-08-0354,,,200.0.0.1,L_0000000204
201,TCGA-08-0355,,,201.0.0.1,L_0000000205
202,TCGA-08-0356,,,202.0.0.1,L_0000000206
203,TCGA-08-0357,,,203.0.0.1,L_0000000207
204,TCGA-08-0358,,,204.0.0.1,L_0000000208
205,TCGA-08-0359,,,205.0.0.1,L_0000000209
206,TCGA-08-0360,,,206.0.0.1,L_0000000210
207,TCGA-08-0381,,,207.0.0.1,L_0000000211
208,TCGA-08-0385,,,208.0.0.1,L_0000000212
209,TCGA-08-0389,,,209.0.0.1,L_0000000213
210,TCGA-08-0390,,,210.0.0.1,L_0000000214
211,TCGA-08-0392,,,211.0.0.1,L_0000000215
212,TCGA-08-0509,,,212.0.0.1,L_0000000216
213,TCGA-08-0510,,,213.0.0.1,L_0000000217
214,TCGA-08-0511,,,214.0.0.1,L_0000000218
215,TCGA-14-1456,,,215.0.0.1,L_0000000219
216,TCGA-14-1794,,,216.0.0.1,L_0000000220
217,TCGA-14-1829,,,217.0.0.1,L_0000000221
218,TCGA-14-3477,,,218.0.0.1,L_0000000222
219,GBM 54,,,219.0.0.1,L_0000000223
220,GBM 55,,,220.0.0.1,L_0000000224
221,GBM 56,,,221.0.0.1,L_0000000225
222,GBM 57,,,222.0.0.1,L_0000000226
223,GBM 58,,,223.0.0.1,L_0000000227
224,GBM 59,,,224.0.0.1,L_0000000228
225,GBM 60,,,225.0.0.1,L_0000000229
226,GBM 61,,,226.0.0.1,L_0000000230
227,GBM 62,,,227.0.0.1,L_0000000231
228,GBM 63,,,228.0.0.1,L_0000000232
229,GBM 64,,,229.0.0.1,L_0000000233
230,GBM 65,,,230.0.0.1,L_0000000234
231,GBM 66,,,231.0.0.1,L_0000000235
232,GBM 67,,,232.0.0.1,L_0000000236
233,GBM 68,,,233.0.0.1,L_0000000237